<?xml version="1.0" encoding="utf-8"?>
<!-- Generator: Adobe Illustrator 19.0.0, SVG Export Plug-In . SVG Version: 6.00 Build 0)  -->
<svg version="1.1" id="Layer_1" xmlns="http://www.w3.org/2000/svg" xmlns:xlink="http://www.w3.org/1999/xlink" x="0px" y="0px"
	 viewBox="0 0 103.3 38.7" style="enable-background:new 0 0 103.3 38.7;" xml:space="preserve">
<style type="text/css">
	.st0{fill-rule:evenodd;clip-rule:evenodd;fill:#C4161C;}
	.st1{fill-rule:evenodd;clip-rule:evenodd;}
</style>
<g>
	<path class="st0" d="M66.7,19.1c0,9.8,7.8,17.8,17.4,17.8c9.6,0,17.4-8,17.4-17.8S93.8,1.4,84.2,1.4C74.6,1.4,66.7,9.3,66.7,19.1z
		 M69.2,19.1c0-8.1,7-15.3,15-15.3c8,0,15,7.2,15,15.3s-7,15.3-15,15.3C76.2,34.4,69.2,27.3,69.2,19.1z"/>
	<polygon class="st0" points="93.5,10 93.5,17.5 87.8,17.5 87.8,20.3 93.5,20.3 93.5,28.3 85.5,28.3 85.5,26 91.2,26 91.2,22.6 
		85.5,22.6 85.5,15.2 91.2,15.2 91.2,12.3 85.5,12.3 85.5,10 	"/>
	<polygon class="st0" points="75.2,10 75.2,17.5 81,17.5 81,20.3 75.2,20.3 75.2,28.3 83.2,28.3 83.2,26 77.5,26 77.5,22.6 
		83.2,22.6 83.2,15.2 77.5,15.2 77.5,12.3 83.2,12.3 83.2,10 	"/>
	<path d="M43.1,19c0,1.8,0.3,3.4,0.9,4.7c0.5,1.2,1.3,2,2.3,2.8c1.5,1.2,3.7,1.8,6.8,1.8h5v-3.4h-5c-2.6,0-4.3-0.7-5.4-2
		c-0.8-1-1.2-2.2-1.2-3.8c0-1.7,0.5-2.9,1.4-3.8c1.1-1.2,3-1.8,5.5-1.8h4.8V10H53c-1.6,0-2.7,0.2-3.9,0.5c-1.2,0.3-2.1,0.6-3,1.3
		C45.2,12.6,43.1,14.9,43.1,19z"/>
	<path class="st1" d="M35.6,28.3c2.2,0,3.3-0.5,4.3-1.6c1.1-1.1,1.3-2.4,1.3-3.4c0-2.2-0.9-3.7-2.7-4.5l-0.1,0l0.1,0
		c0.8-0.4,1.8-1.3,1.8-3.9c0-1.4-0.5-2.5-1.5-3.4c-1.1-1-2.6-1.5-4.4-1.5h-9v18.3H35.6z M29,17.1v-3.8l-0.5,0.2h0h5.8
		c1,0,2.7,0,2.7,2c0,0.8-0.3,0.8-0.9,1.1c-0.6,0.3-1.3,0.3-1.8,0.3h-5.8H29V17.1z M29,20.6v-0.3h-0.5h6.3c0.6,0,1.4,0.1,2.1,0.5
		c0.6,0.4,0.9,1.3,0.9,2c0,0.6-0.2,1.1-0.5,1.5c-0.6,0.6-1.7,0.5-2.5,0.5h-0.1h-6.3H29V25V20.6z"/>
	<path d="M7.7,19c0,1.8,0.3,3.4,0.9,4.7c0.5,1.2,1.3,2,2.3,2.8c1.5,1.2,3.7,1.8,6.8,1.8h5v-3.4h-5c-2.6,0-4.3-0.7-5.4-2
		c-0.8-1-1.2-2.2-1.2-3.8c0-1.7,0.5-2.9,1.4-3.8c1.1-1.2,3-1.8,5.5-1.8h4.8V10h-5.1c-1.6,0-2.7,0.2-3.9,0.5s-2.1,0.6-3,1.3
		C9.8,12.6,7.7,14.9,7.7,19z"/>
	<rect x="1.6" y="10" width="3.4" height="18.3"/>
</g>
</svg>
